{
    "baseUrl": "https://wfov6qa.workforceoptimizer.com/wfo/",
    "defaultCommandTimeout": 10000,
    "requestTimeout": 10000,
    "responseTimeout" : 10000,
    "pageLoadTimeout": 10000,
    "video": false,
    "chromeWebSecurity": false,
    "watchForFileChanges": false,
    "failOnStatusCode": false,
    "viewportWidth": 1440,
    "viewportHeight": 900,
    "ignoreTestFiles": "*.js",
    "screenshotOnRunFailure": true,
    "restartBrowserBetweenSpecFiles": true,
    "reporter": "mochawesome",
    "reporterOptions": {
      "reportDir": "cypress/reports/integration",
      "overwrite": true,
      "html": true,
      "json": true
    },
    "retries": {
      "runMode": 2,
      "openMode": 0
    }
}